<?xml version="1.0" encoding="UTF-8" standalone="no"?>
<!-- Created with Inkscape (http://www.inkscape.org/) -->
<svg xmlns:dc="http://purl.org/dc/elements/1.1/" xmlns:cc="http://creativecommons.org/ns#" xmlns:rdf="http://www.w3.org/1999/02/22-rdf-syntax-ns#" xmlns:svg="http://www.w3.org/2000/svg" xmlns="http://www.w3.org/2000/svg" xmlns:sodipodi="http://sodipodi.sourceforge.net/DTD/sodipodi-0.dtd" xmlns:inkscape="http://www.inkscape.org/namespaces/inkscape" width="297mm" height="210mm" viewBox="0 0 1052.3622 744.09448" id="svg2" version="1.1" inkscape:version="0.91 r13725" sodipodi:docname="computer.svg">
  <defs id="defs4"/>
  <sodipodi:namedview id="base" pagecolor="#ffffff" bordercolor="#666666" borderopacity="1.0" inkscape:pageopacity="0.0" inkscape:pageshadow="2" inkscape:zoom="0.51410778" inkscape:cx="526.1811" inkscape:cy="464.99475" inkscape:document-units="px" inkscape:current-layer="layer1" showgrid="false" inkscape:window-width="1366" inkscape:window-height="716" inkscape:window-x="0" inkscape:window-y="0" inkscape:window-maximized="1" inkscape:snap-intersection-paths="true" inkscape:snap-global="false"/>
  <metadata id="metadata7">
    <rdf:RDF>
      <cc:Work rdf:about="">
        <dc:format>image/svg+xml</dc:format>
        <dc:type rdf:resource="http://purl.org/dc/dcmitype/StillImage"/>
        <dc:title/>
      </cc:Work>
    </rdf:RDF>
  </metadata>
  <g inkscape:label="Layer 1" inkscape:groupmode="layer" id="layer1" transform="translate(0,-308.26772)">
    <rect style="opacity:1;fill:#008080;fill-opacity:1;fill-rule:evenodd;stroke:none;stroke-width:5;stroke-linecap:round;stroke-linejoin:round;stroke-miterlimit:4;stroke-dasharray:none;stroke-opacity:1" id="rect7090" width="1049.9163" height="743.97302" x="1.2229725" y="306.38336"/>
    <g id="g7137" transform="translate(37.224376,60.278647)">
      <path sodipodi:nodetypes="cccc" inkscape:connector-curvature="0" id="rect7087" d="m 484.1428,625.99294 c 56.97673,85.95677 57.83649,101.08623 66.27211,203.56005 l -122.91636,0 c 8.74408,-102.47382 9.61009,-121.04179 56.64425,-203.56005 z" style="opacity:1;fill:#f2f2f2;fill-opacity:1;fill-rule:evenodd;stroke:none;stroke-width:5;stroke-linecap:round;stroke-linejoin:round;stroke-miterlimit:4;stroke-dasharray:none;stroke-opacity:1"/>
      <rect ry="34.201363" y="400.6853" x="255.82545" height="361.73169" width="466.26254" id="rect7063" style="opacity:1;fill:#b3b3b3;fill-opacity:1;fill-rule:evenodd;stroke:none;stroke-width:5;stroke-linecap:round;stroke-linejoin:round;stroke-miterlimit:4;stroke-dasharray:none;stroke-opacity:1"/>
      <path transform="translate(0,308.26772)" id="rect7037" d="m 284.55859,92.417969 c -15.91807,0 -28.73242,12.814341 -28.73242,28.732421 l 0,25.86719 0,161.48828 0,78.13281 c 0,1.44056 1.15905,2.60156 2.59961,2.60156 l 461.0625,0 c 1.44056,0 2.59961,-1.161 2.59961,-2.60156 l 0,-78.13281 0,-161.48828 0,-25.86719 c 0,-15.91808 -12.81434,-28.732421 -28.73242,-28.732421 l -408.79688,0 z" style="opacity:1;fill:#0b2228;fill-opacity:1;fill-rule:evenodd;stroke:none;stroke-width:5;stroke-linecap:round;stroke-linejoin:round;stroke-miterlimit:4;stroke-dasharray:none;stroke-opacity:1" inkscape:connector-curvature="0"/>
      <rect style="opacity:1;fill:#ffffff;fill-opacity:1;fill-rule:evenodd;stroke:none;stroke-width:5;stroke-linecap:round;stroke-linejoin:round;stroke-miterlimit:4;stroke-dasharray:none;stroke-opacity:1" id="rect7066" width="433.99905" height="251.76836" x="271.8941" y="424.86865" ry="0"/>
      <rect ry="0" y="440.06723" x="306.8302" height="214.56328" width="360.12686" id="rect7068" style="opacity:1;fill:#e6e6e6;fill-opacity:1;fill-rule:evenodd;stroke:none;stroke-width:5;stroke-linecap:round;stroke-linejoin:round;stroke-miterlimit:4;stroke-dasharray:none;stroke-opacity:1"/>
      <rect style="opacity:1;fill:#b3b3b3;fill-opacity:1;fill-rule:evenodd;stroke:none;stroke-width:5;stroke-linecap:round;stroke-linejoin:round;stroke-miterlimit:4;stroke-dasharray:none;stroke-opacity:1" id="rect7070" width="360.12686" height="15.129451" x="306.8302" y="440.06723" ry="0"/>
      <rect ry="0" y="442.98489" x="656.04065" height="9.2940989" width="8.3082447" id="rect7072" style="opacity:1;fill:#ff0000;fill-opacity:1;fill-rule:evenodd;stroke:none;stroke-width:5;stroke-linecap:round;stroke-linejoin:round;stroke-miterlimit:4;stroke-dasharray:none;stroke-opacity:1"/>
      <rect style="opacity:1;fill:#550000;fill-opacity:1;fill-rule:evenodd;stroke:none;stroke-width:5;stroke-linecap:round;stroke-linejoin:round;stroke-miterlimit:4;stroke-dasharray:none;stroke-opacity:1" id="rect7074" width="8.3082447" height="9.2940989" x="644.04065" y="442.98489" ry="0"/>
      <rect ry="0" y="442.98489" x="632.04065" height="9.2940989" width="8.3082447" id="rect7076" style="opacity:1;fill:#000080;fill-opacity:1;fill-rule:evenodd;stroke:none;stroke-width:5;stroke-linecap:round;stroke-linejoin:round;stroke-miterlimit:4;stroke-dasharray:none;stroke-opacity:1"/>
      <rect style="opacity:1;fill:#000080;fill-opacity:1;fill-rule:evenodd;stroke:none;stroke-width:5;stroke-linecap:round;stroke-linejoin:round;stroke-miterlimit:4;stroke-dasharray:none;stroke-opacity:1" id="rect7078" width="8.3082447" height="9.2940989" x="313.98331" y="442.98489" ry="4.1541224"/>
      <circle r="12.643263" cy="729.802" cx="488.95673" id="path7083" style="opacity:1;fill:#0b2228;fill-opacity:1;fill-rule:evenodd;stroke:none;stroke-width:5;stroke-linecap:round;stroke-linejoin:round;stroke-miterlimit:4;stroke-dasharray:none;stroke-opacity:1"/>
      <rect style="opacity:1;fill:#f2f2f2;fill-opacity:1;fill-rule:evenodd;stroke:none;stroke-width:5;stroke-linecap:round;stroke-linejoin:round;stroke-miterlimit:4;stroke-dasharray:none;stroke-opacity:1" id="rect7085" width="357.03223" height="196.80099" x="307.86172" y="455.8844" ry="0"/>
      <rect ry="2.8343782" y="826.83508" x="376.17346" height="12.552248" width="225.56654" id="rect7094" style="opacity:1;fill:#999999;fill-opacity:1;fill-rule:evenodd;stroke:none;stroke-width:5;stroke-linecap:round;stroke-linejoin:round;stroke-miterlimit:4;stroke-dasharray:none;stroke-opacity:1"/>
      <rect ry="0" y="557.85339" x="381.1593" height="16.719004" width="210.43707" id="rect7115" style="opacity:1;fill:#ffffff;fill-opacity:1;fill-rule:evenodd;stroke:none;stroke-width:5;stroke-linecap:round;stroke-linejoin:round;stroke-miterlimit:4;stroke-dasharray:none;stroke-opacity:1"/>
      <text sodipodi:linespacing="125%" id="text7117" y="541.38177" x="420.47949" style="font-style:normal;font-weight:normal;font-size:40.07062531px;line-height:125%;font-family:sans-serif;letter-spacing:0px;word-spacing:0px;fill:#000000;fill-opacity:1;stroke:none;stroke-width:1px;stroke-linecap:butt;stroke-linejoin:miter;stroke-opacity:1" xml:space="preserve"><tspan y="541.38177" x="420.47949" id="tspan7119" sodipodi:role="line"><tspan id="tspan7121" style="fill:#0000ff">s</tspan><tspan id="tspan7123" style="fill:#ff0000">e</tspan><tspan id="tspan7125" style="fill:#ffff00">a</tspan><tspan id="tspan7127" style="fill:#0000ff">r</tspan><tspan id="tspan7129" style="fill:#00ff00">c</tspan><tspan id="tspan7135" style="fill:#ff0000">h</tspan></tspan></text>
    </g>
  </g>
</svg>